…
`devtools::install_github("https://github.com/UBC-MDS/prepackR.git")`

## Example Useage

`stdizer()`

```
df <- tibble::tibble(feat1 = c(1:100), feat2 = runif(100, min = 0, max = 5000))
df_stdized <- stdizer(X = df, col_index = c(1, 2), method = 'mean_sd')
```
```
# Output of df_stdized
> df_stdized
# A tibble: 100 x 2
   feat1  feat2
   <dbl>  <dbl>
 1 -1.71  0.601
 2 -1.68 -0.547
 3 -1.65  0.914
 4 -1.61 -0.116
 5 -1.58  0.716
 6 -1.54  1.76 
 7 -1.51 -0.562
 8 -1.47  0.943
 9 -1.44  1.54 
10 -1.40 -1.20 
# … with 90 more rows
```
…
